<?xml version="1.0" encoding="UTF-8"?>
<svg width="21px" height="18px" viewBox="0 0 21 18" version="1.1" xmlns="http://www.w3.org/2000/svg"
     xmlns:xlink="http://www.w3.org/1999/xlink">
    <defs>
        <rect id="path-1" x="4" y="4" width="17" height="14"></rect>
    </defs>
    <g id="Page-1" stroke="none" stroke-width="1" fill="none" fill-rule="evenodd">
        <rect id="Rectangle-19" stroke="#4D4545" stroke-width="2" x="1" y="1" width="15" height="12"></rect>
        <g id="Rectangle-19">
            <use fill="#E15252" fill-rule="evenodd" xlink:href="#path-1"></use>
            <rect stroke="#E15252" stroke-width="2" x="5" y="5" width="15" height="12"></rect>
        </g>
    </g>
</svg>