<?xml version="1.0" encoding="UTF-8"?>
<svg width="10px" height="17px" viewBox="0 0 10 17" version="1.1" xmlns="http://www.w3.org/2000/svg"
     xmlns:xlink="http://www.w3.org/1999/xlink">
    <g stroke="none" stroke-width="1" fill-rule="evenodd" fill="#F2F2F5">
        <polygon id="Shape"
                 transform="translate(5.254667, 6.524603) scale(-1, -1) rotate(-90.000000) translate(-5.254667, -6.524603) "
                 points="11.7417983 6.10779832 0.534352601 6.10779832 4.51606098 2.52577499 3.86456767 1.93974697 -1.23246388 6.52460345 3.86456767 11.1094599 4.51606098 10.5234319 0.534352601 6.94140859 11.7417983 6.94140859"></polygon>
        <polygon id="Shape"
                 transform="translate(5.254667, 10.475397) scale(-1, 1) rotate(-90.000000) translate(-5.254667, -10.475397) "
                 points="11.7417983 10.0585914 0.534352601 10.0585914 4.51606098 6.47656808 3.86456767 5.89054006 -1.23246388 10.4753965 3.86456767 15.060253 4.51606098 14.474225 0.534352601 10.8922017 11.7417983 10.8922017"></polygon>
    </g>
</svg>