<?xml version="1.0" encoding="UTF-8"?>
<svg width="43px" height="35px" viewBox="0 0 43 35" version="1.1" xmlns="http://www.w3.org/2000/svg" xmlns:xlink="http://www.w3.org/1999/xlink">
    <!-- Generator: Sketch 46.2 (44496) - http://www.bohemiancoding.com/sketch -->
    <title>Group 11</title>
    <desc>Created with Sketch.</desc>
    <defs>
        <filter x="-24.2%" y="-23.5%" width="148.5%" height="160.5%" filterUnits="objectBoundingBox" id="filter-1">
            <feOffset dx="0" dy="2" in="SourceAlpha" result="shadowOffsetOuter1"></feOffset>
            <feGaussianBlur stdDeviation="2" in="shadowOffsetOuter1" result="shadowBlurOuter1"></feGaussianBlur>
            <feColorMatrix values="0 0 0 0 0   0 0 0 0 0   0 0 0 0 0  0 0 0 0.5 0" type="matrix" in="shadowBlurOuter1" result="shadowMatrixOuter1"></feColorMatrix>
            <feMerge>
                <feMergeNode in="shadowMatrixOuter1"></feMergeNode>
                <feMergeNode in="SourceGraphic"></feMergeNode>
            </feMerge>
        </filter>
    </defs>
    <g id="Page-1" stroke="none" stroke-width="1" fill="none" fill-rule="evenodd" stroke-linecap="square">
        <g id="2" transform="translate(-16.000000, -719.000000)" stroke="#F2F2F5" stroke-width="1.7">
            <g id="Group-11" transform="translate(21.000000, 722.000000)">
                <g id="Group-10">
                    <g id="Group-2" filter="url(#filter-1)">
                        <g id="Group" transform="translate(0.000000, 3.814516)">
                            <path d="M0.487903226,8.29435484 L8.76789553,0.01436253" id="Line-2"></path>
                            <path d="M0.487903226,8.29435484 L8.76789553,16.5743471" id="Line-2"></path>
                        </g>
                        <g id="Group" transform="translate(28.608871, 12.108871) scale(-1, -1) translate(-28.608871, -12.108871) translate(24.217742, 3.814516)">
                            <path d="M0.487903226,8.29435484 L8.76789553,0.01436253" id="Line-2"></path>
                            <path d="M0.487903226,8.29435484 L8.76789553,16.5743471" id="Line-2"></path>
                        </g>
                        <path d="M13.0846774,24.7056452 L19.3814798,0.417978787" id="Line-3"></path>
                    </g>
                </g>
            </g>
        </g>
    </g>
</svg>