<?xml version="1.0" encoding="UTF-8"?>
<svg width="20px" height="20px" viewBox="0 0 20 20" version="1.1" xmlns="http://www.w3.org/2000/svg" xmlns:xlink="http://www.w3.org/1999/xlink">
    <!-- Generator: Sketch 47.1 (45422) - http://www.bohemiancoding.com/sketch -->
    <title>Group 3</title>
    <desc>Created with Sketch.</desc>
    <defs></defs>
    <g id="MASTER" stroke="none" stroke-width="1" fill="none" fill-rule="evenodd">
        <g id="Top-stripe-delete" transform="translate(-374.000000, -1034.000000)">
            <g id="Group-3" transform="translate(374.000000, 1034.000000)">
                <g id="if_duplicate-copy_725298" fill="#F2F2F5">
                    <path d="M3.1372549,3.1372549 L19.9793602,3.1372549 L19.9793602,19.9793602 L3.1372549,19.9793602 L3.1372549,3.1372549 Z M0,0 L15.7894737,0 L15.7894737,2.10526316 L14.7368421,2.10526316 L14.7368421,1.05263158 L1.05263158,1.05263158 L1.05263158,14.7368421 L2.10526316,14.7368421 L2.10526316,15.7894737 L0,15.7894737 L0,0 Z M4.18300654,4.18300654 L18.9198486,4.18300654 L18.9198486,18.9198486 L4.18300654,18.9198486 L4.18300654,4.18300654 Z" id="Shape" fill-rule="nonzero"></path>
                    <polygon id="Path" points="8 10.1578947 11.1578947 10.1578947 11.1578947 7 13.2631579 7 13.2631579 10.1578947 16.4210526 10.1578947 16.4210526 12.2631579 13.2631579 12.2631579 13.2631579 15.4210526 11.1578947 15.4210526 11.1578947 12.2631579 8 12.2631579"></polygon>
                </g>
                <rect id="Rectangle-2" fill="#323232" x="4" y="4" width="15" height="15"></rect>
                <polygon id="+" fill="#F2F2F5" points="12.2890625 10.34375 15.5078125 10.34375 15.5078125 11.421875 12.2890625 11.421875 12.2890625 14.75 11.203125 14.75 11.203125 11.421875 8 11.421875 8 10.34375 11.203125 10.34375 11.203125 7 12.2890625 7"></polygon>
            </g>
        </g>
    </g>
</svg>