<?xml version="1.0" encoding="UTF-8"?>
<svg width="21px" height="34px" viewBox="0 0 21 34" version="1.1" xmlns="http://www.w3.org/2000/svg" xmlns:xlink="http://www.w3.org/1999/xlink">
    <!-- Generator: Sketch 46.2 (44496) - http://www.bohemiancoding.com/sketch -->
    <title>Triangle 3</title>
    <desc>Created with Sketch.</desc>
    <defs></defs>
    <g id="Movie" stroke="none" stroke-width="1" fill="none" fill-rule="evenodd">
        <g id="CRS-1" transform="translate(-83.000000, -630.000000)" stroke-width="1.5" stroke="#F2F2F5">
            <polygon id="Triangle-3" transform="translate(93.031250, 647.000000) scale(1, -1) rotate(90.000000) translate(-93.031250, -647.000000) " points="93.03125 637.96875 108.03125 656.03125 78.03125 656.03125"></polygon>
        </g>
    </g>
</svg>